nfl
…
#Team Playoff berths
nfl %>% dplyr::filter(playoff =="Y") %>% dplyr::group_by(team) %>% dplyr::summarize(playoff, count = n()) %>% select(team, count) %>% arrange(desc(count)) %>% unique()

## `summarise()` has grouped output by 'team'. You can override using the `.groups` argument.

## # A tibble: 32 x 2
## # Groups:   team [32]
##    team                 count
##    <chr>                <int>
##  1 New England Patriots    16
##  2 Green Bay Packers       14
##  3 Indianapolis Colts      14
##  4 Seattle Seahawks        14
##  5 Pittsburgh Steelers     12
##  6 Baltimore Ravens        11
##  7 Philadelphia Eagles     11
##  8 Kansas City Chiefs      10
##  9 New Orleans Saints       9
## 10 Atlanta Falcons          8
## #  with 22 more rows
